<svg version="1.1" id="Layer_1" xmlns="http://www.w3.org/2000/svg" xmlns:xlink="http://www.w3.org/1999/xlink" x="0px" y="0px"
	 width="173.68px" height="157.592px" viewBox="0 0 173.68 157.592" enable-background="new 0 0 173.68 157.592"
	 xml:space="preserve">
<g>
	<path fill-rule="evenodd" clip-rule="evenodd" fill="#FFFFFF" stroke="#5A84D7" stroke-width="8.6797" stroke-miterlimit="10" d="
		M131.198,153.245c0,0,11.806-126.894,11.755-136.863c-0.044-8.452-3.08-11.575-11.149-11.785
		C121.128,4.318,27.651,4.522,16.792,4.484C11.338,4.464,4.34,6.452,4.34,16.606c0,13.843,0,103.68,0,117.522
		c0,13.632,0.527,19.116,12.565,19.116C24.902,153.081,131.198,153.245,131.198,153.245z"/>
	<path fill-rule="evenodd" clip-rule="evenodd" fill="#FFFFFF" stroke="#5A84D7" stroke-width="8.6797" stroke-miterlimit="10" d="
		M83.708,153.214c-8.819-0.059-11.585-4.487-11.622-13.706c-0.041-9.972,0-19.939,0.007-29.91c0.003-4.428,0.519-8.838,4.638-11.05
		c4.108-2.202,7.196,0.788,10.276,3.264c13.95,11.219,30.248,9.608,39.489-3.857c9.797-14.276,6.969-35.855-6.013-45.865
		c-8.18-6.305-20.319-6.427-29.714-0.271c-1.137,0.744-2.229,1.572-3.287,2.439c-3.177,2.608-6.361,5.981-10.718,3.67
		c-4.356-2.313-4.674-7.012-4.662-11.636c0.028-9.971-0.031-19.939,0.021-29.909C72.166,7.93,75.109,4.657,83.18,4.447
		c10.674-0.278,61.914,0.075,72.773,0.037c5.454-0.021,12.453,1.122,12.453,11.417c0,13.842,0.934,107.158,0.934,121
		c0,14.753-5.289,16.344-14.2,16.282C147.143,153.021,93.061,153.272,83.708,153.214z"/>
</g>
</svg>
