<svg version="1.1" class="svg-present" xmlns="http://www.w3.org/2000/svg" xmlns:xlink="http://www.w3.org/1999/xlink" x="0px" y="0px"
	 width="36px" height="36.583px" viewBox="0 0 36 36.583" enable-background="new 0 0 36 36.583" xml:space="preserve">
<path fill="#6182C2" d="M11.996,16.806l3.198,5.763L7.181,35.928l-3.198-5.696L11.996,16.806z M8.112,9.689l3.199,5.763
	L3.198,28.729L0,23.034L8.112,9.689z M16.478,23.288h6.657l-8.087,13.295H8.6L16.478,23.288z M24.833,23.288h6.656l-8.087,13.295
	h-6.447L24.833,23.288z M17.074,14.32 M21.21,14.847c-1.792-2.423-8.958-11.743-5.03-14.415c1.325-0.901,3.297-0.261,5.071,0.72
	c2.191,1.213,3.706,3.752,3.48,7.266c2.854-2.061,5.832-1.982,8.15-0.955C34.734,8.283,36,9.776,36,11.381
	C36,16.318,21.21,14.847,21.21,14.847z M26.487,12.017c3.199-0.122,6.359-0.426,6.359-0.426c-0.422-0.565-0.868-0.951-1.321-1.202
	C29.535,9.289,26.487,12.017,26.487,12.017z M19.447,3.71c-0.454-0.251-1.019-0.422-1.719-0.481c0,0,1.371,3.21,3.064,6.094
	C20.792,9.323,21.811,5.018,19.447,3.71z M23.143,21.902L16.5,21.905l-3.208-5.758l6.694,0.021L23.143,21.902z M31.497,21.902
	l-6.642,0.003l-3.21-5.758l6.695,0.021L31.497,21.902z M19.424,15.022l-6.641,0.001l-3.21-5.757l6.695,0.021L19.424,15.022z"/>
</svg>
