<svg version="1.1" id="Layer_1" xmlns="http://www.w3.org/2000/svg" xmlns:xlink="http://www.w3.org/1999/xlink" x="0px" y="0px"
	 width="57px" height="50.699px" viewBox="0 0 57 50.699" enable-background="new 0 0 57 50.699" xml:space="preserve">
<g>
	<path fill="#1CB682" d="M41.505,13.014C41.498,20.195,35.58,26.006,28.286,26c-7.296-0.008-13.203-5.834-13.197-13.012
		C15.098,5.807,21.017-0.008,28.312,0C35.606,0.007,41.512,5.834,41.505,13.014z"/>
	<path fill="#1CB682" d="M57,50.699l-57-0.06C0.016,35.146,12.79,22.6,28.531,22.617C44.271,22.632,57.016,35.206,57,50.699z"/>
</g>
</svg>
