<svg xmlns="http://www.w3.org/2000/svg" width="985" height="275" xmlns:xlink="http://www.w3.org/1999/xlink">
  <defs>
    <path id="cat-desktop-slide-1a" d="M0 .064h181.672V275H0"/>
    <path id="cat-desktop-slide-1c" d="M0 .244h141.415V179H0"/>
    <path id="cat-desktop-slide-1e" d="M0 .244h141.415V179H0"/>
    <path id="cat-desktop-slide-1g" d="M0 .6h150.653V200H0V.6z"/>
    <path id="cat-desktop-slide-1i" d="M0 .214h181.673V273H0V.214z"/>
  </defs>
  <g fill="none" fill-rule="evenodd">
    <path fill="#FEFEFE" d="M855.24 102.39c-16.967 0-30.768 13.812-30.768 30.79 0 16.977 13.8 30.79 30.767 30.79 16.96 0 30.76-13.813 30.76-30.79 0-16.978-13.8-30.79-30.77-30.79m0 65.15c-18.94 0-34.34-15.413-34.34-34.36 0-18.948 15.4-34.362 34.33-34.362s34.33 15.414 34.33 34.362c0 18.947-15.4 34.36-34.34 34.36M935 102.39c-16.965 0-30.767 13.812-30.767 30.79 0 16.977 13.8 30.79 30.765 30.79s30.766-13.813 30.766-30.79c0-16.978-13.8-30.79-30.768-30.79m0 65.15c-18.93 0-34.336-15.413-34.336-34.36-.004-18.948 15.4-34.362 34.332-34.362 18.93 0 34.333 15.414 34.333 34.362 0 18.947-15.4 34.36-34.333 34.36"/>
    <path fill="#FEFEFE" d="M844.22 114.737c0 3.38-2.737 6.116-6.112 6.116s-6.11-2.737-6.11-6.116c0-3.38 2.735-6.116 6.11-6.116 3.375 0 6.112 2.74 6.112 6.12m79.113 0c0 3.38-2.737 6.12-6.11 6.12-3.377 0-6.112-2.73-6.112-6.11 0-3.38 2.74-6.11 6.12-6.11s6.11 2.74 6.11 6.12M897.05 190h-.04c-3.193 0-6.287-3.734-8.02-6.427.898-.112 1.79-.3 2.647-.667 2.425-1.043 4.273-3.086 5.595-6.01 1.325 2.924 3.173 4.967 5.598 6.01.485.21.985.328 1.485.45-1.8 3.303-4.33 6.617-7.264 6.646m-5.38-28.163c.39-1.61 2.7-2.94 5.3-2.94 2.61 0 4.92 1.32 5.31 2.93-1.91.96-8.69.96-10.6 0m26.74 12.79c-2.33 1.95-9.4 6.57-13.99 4.6-3.3-1.42-4.66-6.07-5.21-10.47.09-.76.25-1.4.3-2.22 0-.05-.04-.07-.04-.11 3.25-.28 6.86-1.23 6.86-4.13 0-4.15-4.11-7.41-9.35-7.41-5.24 0-9.35 3.25-9.35 7.4 0 1.18.66 2.76 3.78 3.6 1.01.27 2.28.43 3.62.52 0 .04-.03.06-.03.1.05.81.22 1.46.3 2.22-.54 4.39-1.9 9.04-5.2 10.46-4.58 1.96-11.66-2.66-14-4.61-.85-.71-2.1-.59-2.81.26-.7.84-.59 2.1.26 2.8.3.25 5.47 4.49 11.22 5.67l-.37.18c.54 1.07 5.47 10.43 12.64 10.43h.07c4.38-.04 8.29-3.56 11.63-10.46h-.01c6.16-.85 11.94-5.56 12.26-5.83.85-.7.96-1.96.25-2.81-.7-.85-1.96-.97-2.8-.26M855.23 70.9c-.384.07-.755.138-1.12.208.397.062.78-.016 1.12-.206m-50.1 118.25c-.38 0-.76-.12-1.08-.37-.786-.595-.934-1.72-.334-2.5 7.827-10.215 21.03-15.786 38.19-16.113 12.78-.25 23.14 2.44 23.577 2.56.95.25 1.52 1.22 1.27 2.18-.25.95-1.22 1.52-2.18 1.27-.405-.11-40.67-10.39-58.02 12.27-.353.46-.883.7-1.42.7m-.16 33c-.27 0-.542-.06-.8-.19-.88-.45-1.234-1.52-.79-2.4 6.237-12.38 18.764-22.04 36.23-27.92 13.07-4.41 24.15-5.17 24.614-5.2 1.04-.07 1.832.68 1.896 1.67.063.98-.68 1.83-1.666 1.9-.434.03-43.803 3.2-57.89 31.16-.313.62-.94.98-1.594.98"/>
    <g transform="translate(803)">
      <mask id="cat-desktop-slide-1b" fill="#fff">
        <use xlink:href="#cat-desktop-slide-1a"/>
      </mask>
      <path fill="#FEFEFE" d="M86.13 43.334c11.686-.687 23.605 6.963 35.446 22.757-19.332-1.86-49.26-1.5-66.8.95 4.247-6.88 15.684-22.75 31.354-23.7M64.838 7.07c-7.07-1.13-12.274-2.38-15.556-3.39 3.432.067 8.767.495 15.838 1.622 7.07 1.13 12.274 2.38 15.556 3.386-3.432-.064-8.77-.493-15.838-1.622m45.08 8.324c6.808 1.755 12.177 3.55 15.574 4.935-3.642-.428-9.21-1.45-16.02-3.205-6.81-1.755-12.18-3.552-15.575-4.936 3.642.43 9.21 1.452 16.02 3.206M.042 148.925V259.5c0 4.395.297 8.716.846 12.945L.648 275H4.88c-.817-5.032-1.27-10.207-1.27-15.5V148.924c0-10.535 1.714-20.87 5.092-30.718.096-.282.12-.585.07-.88-8.067-47.152-5.442-65.216-.296-66.4 6.39-1.458 18.175 6.382 33.187 22.103.58.6 1.5.72 2.212.29 1.387-.84 3.91-1.57 7.22-2.2.367-.07.738-.14 1.122-.21 16.988-2.96 52.46-3.39 72.065-1.07 1.64.19 3.155.41 4.55.64 3.648.6 6.43 1.34 7.93 2.21.71.41 1.608.28 2.184-.31 14.714-15.29 26.285-22.91 32.578-21.47 4.977 1.14 7.655 18.34.248 63.17-.052.31-.02.63.095.93 4.14 10.76 6.238 22.17 6.238 33.89V181c-7.63-6.86-18.488-10.584-31.845-10.85-12.272-.244-22.193 2.45-22.61 2.565-.95.26-1.507 1.244-1.246 2.194.262.95 1.243 1.51 2.194 1.25.37-.11 36.067-9.61 53.507 9.9v20.95c-6.977-6.46-16.334-11.68-27.73-15.39-13.508-4.4-24.952-5.16-25.434-5.19-.98-.06-1.82.69-1.89 1.67-.06.98.69 1.83 1.67 1.89.4.02 35.07 2.48 53.39 22.02v47.45c0 5.21-.46 10.4-1.31 15.5h3.64l.16-.93c.72-4.8 1.09-9.68 1.09-14.58V148.92c0-12.006-2.11-23.685-6.3-34.724 7.05-42.828 6.05-64.667-3.04-66.758-7.65-1.752-19.43 5.495-35.06 21.55-2.36-.955-6.15-1.736-10.86-2.354-12.16-17.15-24.64-26.17-37.18-26.86V13.89c2.79 1.65 8.35 3.85 19.37 6.685 10.39 2.68 16.27 3.514 19.61 3.514 4.08 0 4.4-1.24 4.57-1.89.3-1.19 1.11-4.33-21.96-10.27C96.3 8.19 90.6 8.05 88.29 8.75c-.136-.08-.284-.13-.44-.16-.876-1.59-4.93-4.07-22.17-6.82-23.03-3.677-23.544-.473-23.736.734v.002c-.19 1.202-.7 4.406 22.336 8.08 7.9 1.26 13.15 1.712 16.65 1.712 2.196 0 3.69-.18 4.726-.45v27.91c0 .012.007.023.007.033C65.65 41.19 52.677 63.22 50.2 67.78c-2.86.54-5.218 1.152-6.86 1.84C27.414 53.128 15.42 45.68 7.68 47.445c-3.44.79-13.89 3.188-2.497 70.036-3.413 10.1-5.14 20.67-5.14 31.45" mask="url(#b)"/>
    </g>
    <path fill="#FEFEFE" d="M898.202 237.23c-24.544 0-45.11 16.2-50.16 37.77h3.677c5-19.584 23.93-34.198 46.48-34.198 22.54 0 41.48 14.614 46.48 34.198h3.67c-5.05-21.57-25.62-37.77-50.16-37.77m-211.81-56.058c1.42.87 7.27.87 8.7 0-.23-1.414-2.13-2.557-4.35-2.557-2.22 0-4.12 1.143-4.35 2.557m4.35 3.46c-1.64 0-3.18-.173-4.34-.49-2.35-.636-2.85-1.81-2.85-2.68 0-3.178 3.16-5.665 7.18-5.665 4.03 0 7.18 2.487 7.18 5.664 0 2.76-4.5 3.18-7.19 3.18"/>
    <path fill="#FEFEFE" d="M698.543 198.13c-1.064 0-2.122-.182-3.132-.616-3.59-1.548-5.63-5.83-6.07-12.732-.05-.776.54-1.446 1.32-1.495.78-.04 1.44.54 1.49 1.316.25 3.956 1.22 8.96 4.38 10.322 3.69 1.58 9.31-2.095 11.16-3.647.6-.5 1.49-.418 1.98.18.5.596.42 1.485-.18 1.984-.27.227-5.67 4.688-10.94 4.688"/>
    <path fill="#FEFEFE" d="M683.363 198.13c-5.27 0-10.672-4.46-10.942-4.688-.59-.5-.67-1.387-.17-1.983.5-.6 1.38-.69 1.98-.19 1.86 1.55 7.5 5.23 11.17 3.64 3.16-1.37 4.13-6.37 4.38-10.32.05-.78.73-1.36 1.49-1.32.78.05 1.37.72 1.32 1.49-.44 6.9-2.48 11.18-6.07 12.73-1.01.43-2.07.61-3.13.61m-26.31-72.93zm0 0zm57.12 67.5c-.76.16-1.25.91-1.08 1.67.16.76.92 1.25 1.67 1.08.3-.07 29.98-6.17 42.86 7.18v-3.81c-14.65-12.06-42.22-6.39-43.44-6.13m.9 8.17c-.76-.04-1.43.56-1.47 1.34-.03.77.56 1.43 1.34 1.47.32.01 29 1.57 42.67 14.31v-3.71c-14.87-11.91-41.25-13.35-42.53-13.42m-48.84-5.42c.76.15 1.51-.34 1.66-1.1.16-.76-.34-1.51-1.1-1.66-1.27-.26-29.59-5.84-44.94 5.84v3.69c13.71-12.81 44.08-6.84 44.39-6.77"/>
    <g transform="translate(619 95)">
      <mask id="cat-desktop-slide-1d" fill="#fff">
        <use xlink:href="#cat-desktop-slide-1c"/>
      </mask>
      <path fill="#FEFEFE" d="M2.842 103.548V79.572c0-8.208 1.333-16.263 3.96-23.94.078-.224.098-.464.057-.696C.58 18.19 2.61 4.112 6.61 3.192c4.96-1.15 14.13 4.974 25.81 17.226.456.478 1.178.574 1.744.232 8.04-4.88 64.095-5.255 72.27-.487.553.326 1.266.23 1.72-.24C119.6 8.01 128.59 2.065 133.496 3.193c3.862.888 5.94 14.287.18 49.226-.043.24-.017.5.072.73 3.22 8.38 4.854 17.27 4.854 26.42v24.26c.743.61 1.464 1.25 2.136 1.96.536.56.514 1.45-.048 1.99-.273.26-.62.39-.97.39-.37 0-.74-.15-1.017-.44-.032-.04-.068-.07-.1-.1v11.65c.992.79 1.93 1.64 2.81 2.53V79.57c0-9.363-1.648-18.468-4.903-27.07 8.143-49.636.22-51.457-2.386-52.058C128.184-.92 119 4.724 106.836 17.24c-11.135-4.488-62.015-4.144-73.09.485C21.35 4.87 12.006-.942 5.986.445 3.306 1.06-4.837 2.937 4.03 55.058c-2.654 7.87-4 16.116-4 24.514v26.576c.065-.13.135-.26.244-.37.804-.81 1.667-1.545 2.568-2.23" mask="url(#d)"/>
    </g>
    <path fill="#FEFEFE" d="M758.723 203.18c.348 0 .697-.13.968-.388.57-.537.59-1.43.05-1.992-.67-.707-1.39-1.35-2.13-1.963v3.808c.04.034.07.064.1.097.28.292.65.44 1.02.44"/>
    <g transform="translate(619 95)">
      <mask id="cat-desktop-slide-1f" fill="#fff">
        <use xlink:href="#cat-desktop-slide-1e"/>
      </mask>
      <path fill="#FEFEFE" d="M138.604 119.293v3.712c1.03.96 1.97 1.993 2.81 3.087v-4.265c-.88-.892-1.816-1.738-2.81-2.534" mask="url(#f)"/>
    </g>
    <path fill="#FEFEFE" d="M665.91 200.877c-1.33.067-30.56 1.718-44.067 16.158v-18.487c-.9.685-1.765 1.42-2.57 2.23-.107.11-.177.238-.242.37v21.11c.1.13.21.25.35.344.24.155.51.23.77.23.46 0 .91-.224 1.18-.637.17-.248.35-.483.52-.726 11.34-15.92 43.88-17.76 44.21-17.78.78-.04 1.37-.7 1.33-1.48-.04-.78-.7-1.38-1.47-1.34m24.83 8.3c-9.21 0-16.69-6.7-16.69-14.92h2.81c0 6.67 6.23 12.1 13.89 12.1s13.89-5.43 13.89-12.1h2.81c0 8.22-7.49 14.92-16.69 14.92m-31.04-70.82c-11.19 0-20.29 9.12-20.29 20.34s9.1 20.34 20.29 20.34S680 169.91 680 158.69s-9.1-20.34-20.29-20.34m0 43.5c-12.74 0-23.102-10.39-23.102-23.16s10.367-23.16 23.107-23.16 23.1 10.39 23.1 23.16-10.363 23.16-23.102 23.16m61.458-43.5c-11.18 0-20.29 9.12-20.29 20.34s9.11 20.34 20.29 20.34c11.19 0 20.29-9.12 20.29-20.34s-9.1-20.34-20.29-20.34m0 43.5c-12.74 0-23.1-10.39-23.1-23.16s10.37-23.16 23.1-23.16c12.74 0 23.11 10.39 23.11 23.16s-10.36 23.16-23.1 23.16"/>
    <path fill="#FEFEFE" d="M699.465 162.93h-18.067v-2.82h18.067v2.82zm43.96-2.946l-1.14-2.577 12.942-5.77 1.142 2.576-12.95 5.77zm-105.99 1.262l-14.517-7.052 1.227-2.538 14.517 7.05-1.228 2.54zm22.1-17.06c0 3.04-2.46 5.5-5.5 5.5-3.037 0-5.5-2.46-5.5-5.5s2.463-5.5 5.5-5.5c3.04 0 5.5 2.46 5.5 5.5m57.35 2.742c0 3.04-2.46 5.5-5.5 5.5s-5.5-2.46-5.5-5.5c0-3.038 2.46-5.5 5.5-5.5s5.5 2.462 5.5 5.5M759.085 274l1.097-7.61c.14-1.867.237-3.74.237-5.62v-39.678c-.85-1.094-1.78-2.125-2.82-3.088v42.767c0 4.47-.43 8.89-1.23 13.23h2.7zm-136.04 0c-.77-4.28-1.2-8.696-1.2-13.23v-39.3c-.175.242-.357.478-.52.726-.27.413-.72.637-1.177.637-.264 0-.532-.074-.77-.23-.14-.093-.25-.214-.346-.344v38.51c0 4.52.4 8.94 1.136 13.23h2.878zm25.806 0c2.94-16.393 18.26-28.93 36.66-28.93 18.41 0 33.72 12.537 36.66 28.93h2.86c-2.95-17.956-19.54-31.75-39.51-31.75S648.96 256.044 646 274h2.86z"/>
    <g fill="#FEFEFE">
      <path d="M486.41 271.712c1.618.988 8.246.988 9.86 0-.262-1.6-2.412-2.89-4.93-2.89-2.516 0-4.667 1.29-4.93 2.89m4.93 3.913c-1.852 0-3.6-.196-4.92-.553-2.666-.72-3.225-2.048-3.225-3.033 0-3.6 3.58-6.41 8.146-6.41 4.57 0 8.15 2.81 8.15 6.4 0 3.12-5.1 3.58-8.14 3.58"/>
      <path d="M500.185 290.888c-1.205 0-2.405-.205-3.55-.696-4.072-1.75-6.39-6.595-6.886-14.398-.06-.878.61-1.635 1.49-1.69.86-.046 1.63.61 1.69 1.488.28 4.472 1.37 10.125 4.96 11.67 4.16 1.792 10.55-2.37 12.66-4.124.68-.563 1.68-.47 2.24.206.56.674.47 1.678-.2 2.242-.31.257-6.44 5.302-12.41 5.302"/>
      <path d="M482.975 290.888c-5.976 0-12.1-5.045-12.408-5.302-.676-.564-.765-1.568-.202-2.242.562-.676 1.568-.77 2.244-.206 2.1 1.755 8.49 5.916 12.66 4.123 3.58-1.54 4.67-7.19 4.96-11.66.05-.88.81-1.53 1.69-1.49.88.06 1.54.82 1.49 1.69-.5 7.81-2.82 12.65-6.89 14.4-1.15.49-2.35.7-3.55.7m11.99-22.2c-.35-1.43-2.42-2.61-4.74-2.61-2.32 0-4.39 1.18-4.74 2.62 1.71.86 7.76.86 9.47 0m-41.83-63.45zm0 0zm1.59 8.1c-15.16 0-27.49 12.33-27.49 27.48s12.33 27.48 27.49 27.48 27.48-12.33 27.48-27.48-12.33-27.48-27.49-27.48m0 58.15c-16.91 0-30.68-13.76-30.68-30.67 0-16.91 13.76-30.66 30.67-30.66s30.68 13.76 30.68 30.67c0 16.91-13.76 30.67-30.68 30.67m71.28-58.15c-15.16 0-27.49 12.33-27.49 27.48 0 15.16 12.33 27.48 27.49 27.48s27.48-12.32 27.48-27.48c0-15.15-12.33-27.48-27.49-27.48m0 58.15c-16.91 0-30.67-13.76-30.67-30.67 0-16.91 13.76-30.66 30.67-30.66s30.67 13.76 30.67 30.67c0 16.91-13.76 30.67-30.68 30.67"/>
      <path d="M461.798 224.664c0 3.015-2.445 5.458-5.46 5.458-3.016 0-5.46-2.443-5.46-5.458 0-3.016 2.444-5.46 5.46-5.46 3.015 0 5.46 2.444 5.46 5.46m70.678 0c0 3.015-2.445 5.458-5.46 5.458-3.016 0-5.46-2.443-5.46-5.458 0-3.016 2.444-5.46 5.46-5.46 3.015 0 5.46 2.444 5.46 5.46"/>
      <path d="M564.778 230.45c9.233-56.124.25-58.183-2.705-58.862-6.738-1.543-17.15 4.84-30.942 18.99-12.62-5.074-70.31-4.685-82.87.55-14.05-14.536-24.64-21.11-31.47-19.54-3.04.696-12.27 2.817-2.22 61.754-3.01 8.9-4.53 18.225-4.53 27.72v30.05c.08-.148.16-.294.28-.42.91-.913 1.89-1.744 2.92-2.52v-27.11c0-9.282 1.51-18.39 4.49-27.07.09-.254.11-.524.07-.788-7.11-41.553-4.81-57.47-.27-58.51 5.63-1.3 16.03 5.624 29.27 19.48.52.54 1.34.647 1.98.26 9.12-5.516 72.68-5.94 81.94-.548.63.366 1.44.256 1.95-.273 12.98-13.472 23.17-20.194 28.73-18.92 4.38 1.007 6.74 16.157.21 55.664-.04.28-.01.568.09.832 3.65 9.48 5.5 19.53 5.5 29.87v97.47c0 5.21-.51 10.4-1.47 15.46h3.23c.92-5.08 1.43-10.26 1.43-15.47v-97.47c0-10.59-1.87-20.88-5.56-30.61"/>
    </g>
    <path fill="#FEFEFE" d="M288.794 213.233h-.03c-2.668 0-5.252-3.12-6.7-5.372.75-.09 1.494-.25 2.21-.55 2.026-.87 3.57-2.58 4.674-5.02 1.104 2.45 2.648 4.15 4.673 5.03.41.18.83.28 1.24.38-1.5 2.76-3.61 5.53-6.06 5.56m-4.5-23.54c.33-1.34 2.26-2.45 4.43-2.45 2.18 0 4.11 1.11 4.43 2.45-1.6.81-7.26.81-8.85 0m22.33 10.7c-1.95 1.63-7.85 5.5-11.69 3.85-2.75-1.18-3.89-5.07-4.35-8.75.08-.63.21-1.17.25-1.85.01-.03-.03-.06-.03-.09 2.71-.23 5.73-1.02 5.73-3.44 0-3.47-3.43-6.18-7.81-6.18-4.37 0-7.8 2.72-7.8 6.19 0 .99.55 2.31 3.15 3.02.85.23 1.91.36 3.03.44 0 .04-.03.06-.03.09.05.69.18 1.22.25 1.86-.45 3.68-1.59 7.56-4.34 8.75-3.82 1.65-9.74-2.22-11.69-3.85-.7-.59-1.75-.49-2.34.22s-.49 1.76.22 2.35c.25.21 4.57 3.75 9.37 4.75l-.3.16c.45.9 4.57 8.72 10.56 8.72h.06c3.66-.03 6.93-2.97 9.72-8.74l-.01-.01c5.14-.71 9.97-4.65 10.23-4.87.71-.59.8-1.64.21-2.35-.59-.71-1.64-.8-2.34-.21m-53.35-8.3c-13.93 0-25.26-11.35-25.26-25.3 0-13.95 11.34-25.3 25.27-25.3s25.26 11.35 25.26 25.308-11.33 25.305-25.26 25.305m28.59-25.31c0-15.79-12.82-28.635-28.59-28.635s-28.6 12.84-28.6 28.63 12.83 28.64 28.6 28.64 28.596-12.85 28.596-28.64m64.783 0c0 13.95-11.34 25.3-25.27 25.3s-25.26-11.35-25.26-25.3 11.34-25.31 25.27-25.31 25.266 11.35 25.266 25.303m-53.858 0c0 15.79 12.82 28.64 28.59 28.64S350 182.59 350 166.8s-12.827-28.64-28.594-28.64-28.59 12.85-28.59 28.64"/>
    <path fill="#FEFEFE" d="M263.39 162.143c-3.428 0-6.21 2.783-6.21 6.22 0 3.433 2.782 6.218 6.21 6.218 3.43 0 6.21-2.78 6.21-6.21s-2.78-6.22-6.21-6.22m71.73 0c-3.428 0-6.21 2.79-6.21 6.22 0 3.44 2.782 6.22 6.21 6.22 3.43 0 6.21-2.78 6.21-6.21s-2.78-6.22-6.21-6.22m-91.15-19.23c-.786.25-1.622-.19-1.87-.97l-2.982-9.49c-.245-.79.19-1.62.975-1.87.785-.25 1.62.19 1.87.98l2.98 9.49c.248.79-.19 1.63-.974 1.88m-11.5 8.35c-.6.57-1.54.55-2.11-.05l-6.86-7.2c-.57-.59-.55-1.54.05-2.11.59-.57 1.54-.54 2.1.05l6.86 7.2c.57.6.54 1.54-.05 2.11m27.78-9.06c.8.18 1.6-.33 1.78-1.13l2.14-9.71c.17-.81-.33-1.6-1.14-1.78-.81-.18-1.6.33-1.78 1.13l-2.15 9.72c-.18.81.33 1.61 1.13 1.78m.73-31.78c0 .82.67 1.49 1.5 1.48l9.93-.07c.82 0 1.48-.68 1.48-1.5-.01-.82-.68-1.49-1.5-1.48l-9.94.07c-.82.01-1.49.68-1.48 1.51m41.19 0c0 .82.68 1.49 1.5 1.48l9.93-.07c.82 0 1.48-.68 1.48-1.5-.01-.82-.68-1.49-1.5-1.48l-9.94.07c-.82.01-1.49.68-1.48 1.507m28.03 32.503c.78.25 1.62-.19 1.87-.97l2.98-9.49c.24-.79-.19-1.62-.98-1.87s-1.63.19-1.87.97l-2.98 9.49c-.25.79.18 1.63.97 1.88m-16.28-.716c-.81.18-1.6-.33-1.78-1.13l-2.15-9.72c-.18-.8.33-1.6 1.13-1.78.8-.18 1.6.33 1.78 1.14l2.15 9.718c.18.81-.33 1.6-1.13 1.78"/>
    <path fill="#221F20" d="M254.047 130.27v.003-.002z"/>
    <g transform="translate(212 89)">
      <mask id="cat-desktop-slide-1h" fill="#fff">
        <use xlink:href="#cat-desktop-slide-1g"/>
      </mask>
      <path fill="#FEFEFE" d="M112.72 27.064c-.092 1.213-.213 2.337-.353 3.38-.447 3.31-1.09 5.732-1.707 7.154-.315.726-.62 1.206-.887 1.396l-2.302-1.276-2.07-1.2-14.46-8.363c.09-.14.12-.3.2-.44.59-1.04 1.01-2.14 1.28-3.29.22-.924.4-1.858.4-2.82v-.492c0-2.328-.64-4.58-1.86-6.552l14.48-8.37L107.48 5l2.3-1.23c.267.19.572.67.887 1.398 1.087 2.508 2.273 8.11 2.273 16.218 0 2.06-.08 3.957-.21 5.685zm-23.114-5.46c0 .92-.162 1.818-.426 2.684-.3.982-.74 1.922-1.36 2.776-.133.18-.294.327-.437.497-.23.28-.45.56-.704.8-1.74 1.64-4 2.54-6.35 2.54h-8.01c-2.69 0-5.24-1.18-7.01-3.23-.02-.01-.02-.03-.03-.04-.36-.42-.69-.87-.96-1.34-.36-.61-.62-1.28-.83-1.95-.28-.88-.46-1.79-.46-2.72v-.49c0-1.64.44-3.26 1.28-4.68.28-.48.61-.94.98-1.38 1.77-2.05 4.32-3.23 7.01-3.23h8c2.35 0 4.61.91 6.35 2.54.41.39.79.83 1.13 1.3 1.17 1.61 1.79 3.5 1.79 5.46v.5zm-29.403 2.893c.23.96.575 1.897 1.03 2.785l-.96.557-15.297 8.84-1.787 1.03-2.54 1.27c-.2-.14-.43-.45-.66-.9-.67-1.28-1.41-3.8-1.91-7.4-.15-1.03-.27-2.15-.37-3.35-.15-1.81-.24-3.79-.24-5.97 0-8.7 1.36-14.52 2.5-16.72.23-.45.45-.75.65-.9 0 0 1.13.41 2.54 1.23L44.94 6l16.28 9.416c-.905 1.765-1.38 3.713-1.38 5.68v.49c0 .976.12 1.947.35 2.894zM110.926 1.04c-.043-.028-.068-.06-.12-.088-.83-.446-1.61-.376-2.05-.276-.087.016-.172.04-.257.07-.07.024-.12.043-.12.043-.04.02-.08.03-.12.05L88.88 12.05c-2.32-2.214-5.34-3.425-8.55-3.425h-8.007c-3.564 0-6.913 1.51-9.282 4.163L42.4.85c-.037-.022-.08-.032-.116-.05-.043-.035-.107-.064-.2-.087h-.01c-.162-.052-.33-.07-.497-.066-1.005-.104-1.687.206-1.687.206s-.003.014-.005.017c-4.21 1.3-5.37 13.267-5.37 20.51 0 1.54.057 3.294.18 5.114.11 1.65.28 3.347.52 4.995.735 5.04 2.143 9.55 4.614 10.38l-.01.01s1.51.56 2.39.07c.01-.01.02-.02.03-.02.05-.03.1-.04.15-.07l20.65-11.95c2.37 2.65 5.71 4.16 9.28 4.16h8c3.21 0 6.23-1.21 8.56-3.43l19.38 11.21.11.06.22.08c.03.01.06.01.09.02.4.1 1.14.21 1.99-.18.02-.01.03-.02.05-.03 2.55-1.01 3.94-6.02 4.62-11.38.22-1.75.37-3.52.45-5.21.07-1.37.1-2.68.1-3.86 0-7.02-1.09-18.44-4.99-20.34z" mask="url(#h)"/>
    </g>
    <path fill="#FEFEFE" d="M287.21 164.883h-59.2c-.82 0-1.49-.67-1.49-1.493 0-.824.67-1.493 1.49-1.493h59.2c.825 0 1.49.67 1.49 1.493 0 .824-.665 1.493-1.49 1.493m66.54 0h-59.2c-.822 0-1.49-.67-1.49-1.493 0-.824.668-1.493 1.49-1.493h59.2c.823 0 1.49.67 1.49 1.493 0 .824-.667 1.493-1.49 1.493"/>
    <path fill="#FEFEFE" d="M314.252 206.19c.315-.06 31.232-5.918 45.07 6.652v13.903C345.497 212.615 315.9 211 314.55 210.933c-.904-.054-1.7.664-1.746 1.583-.043.92.664 1.702 1.58 1.748.34.015 33.715 1.824 44.94 17.645v42.41c0 4.95-.497 9.86-1.412 14.67h3.395c.877-4.82 1.345-9.73 1.345-14.68v-91.54c0-9.95-1.75-19.62-5.206-28.77 8.67-52.83.135-54.79-2.674-55.44-6.017-1.38-15.08 3.88-26.965 15.66-.086 1.69-.232 3.46-.454 5.2 12.076-12.54 21.53-18.79 26.674-17.62 4.034.93 6.166 15.1.063 52.08-.05.29-.018.59.088.87 3.414 8.89 5.145 18.31 5.145 27.99v25.77c-15.742-11.33-44.423-5.89-45.71-5.64-.902.18-1.49 1.05-1.313 1.95.177.9 1.05 1.49 1.952 1.32M233.426 289h3.508c6.896-18.97 27.005-32.74 50.69-32.74 23.684 0 43.794 13.77 50.692 32.74h3.505c-6.97-20.834-28.61-36.075-54.19-36.075s-47.23 15.24-54.2 36.075m-21.41-106.22v91.547c0 5.014.45 9.91 1.3 14.648l.01.025h3.41c-.89-4.738-1.39-9.638-1.39-14.673v-41.255c11.75-17.197 46.79-19.175 47.15-19.192.92-.048 1.63-.832 1.58-1.75-.04-.92-.84-1.66-1.74-1.582-1.42.07-32.57 1.827-46.97 17.226v-15.257c14.39-13.85 46.96-7.45 47.29-7.382.89.17 1.78-.402 1.96-1.305.19-.9-.39-1.782-1.3-1.965-1.35-.274-31.57-6.218-47.95 6.27V182.78c0-8.696 1.42-17.232 4.21-25.37.09-.265.11-.547.07-.823-6.65-38.91-4.56-53.8-.38-54.76 5.22-1.206 14.91 5.284 27.28 18.247.2.21.45.332.71.415-.24-1.65-.41-3.35-.52-5-12.49-12.65-21.99-18.35-28.2-16.92-2.88.66-11.66 2.68-2.22 58.15-2.81 8.36-4.24 17.12-4.24 26.05M52.24 99.92c-16.964 0-30.766 13.808-30.766 30.77s13.802 30.77 30.766 30.77c16.97 0 30.77-13.802 30.77-30.767s-13.8-30.767-30.77-30.767m0 65.103c-18.93 0-34.335-15.4-34.335-34.33S33.31 96.36 52.24 96.36c18.933 0 34.337 15.402 34.337 34.335S71.173 165.03 52.24 165.03m79.786-65.102c-16.965 0-30.767 13.802-30.767 30.767s13.8 30.767 30.76 30.767 30.76-13.802 30.76-30.767-13.8-30.767-30.77-30.767m0 65.103c-18.93 0-34.34-15.4-34.34-34.33s15.4-34.33 34.33-34.33 34.33 15.41 34.33 34.34-15.4 34.34-34.33 34.34"/>
    <path fill="#FEFEFE" d="M74.222 117.247c0 3.376-2.737 6.112-6.11 6.112-3.377 0-6.113-2.74-6.113-6.12s2.73-6.11 6.11-6.11c3.37 0 6.11 2.73 6.11 6.11m79.11 0c0 3.37-2.74 6.11-6.11 6.11-3.38 0-6.12-2.74-6.12-6.12s2.73-6.11 6.11-6.11c3.37 0 6.11 2.73 6.11 6.11M87.6 165.77c1.763.986 8.654.986 10.416 0-.314-1.656-2.57-2.987-5.208-2.987-2.64 0-4.894 1.33-5.208 2.987m5.208 4.314c-1.995 0-3.875-.21-5.3-.596-2.904-.782-3.514-2.24-3.514-3.323 0-3.895 3.87-6.948 8.814-6.948 4.94 0 8.813 3.05 8.813 6.946 0 3.414-5.52 3.922-8.81 3.922"/>
    <path fill="#FEFEFE" d="M116.065 187.244h-11.462c-3.123 0-5.746-1.09-7.796-3.235-5.082-5.32-4.684-15.37-4.664-15.79.044-.99.888-1.72 1.863-1.7.98.04 1.745.87 1.702 1.86-.004.09-.343 8.96 3.685 13.16 1.37 1.43 3.074 2.12 5.21 2.12h11.462c.987 0 1.784.8 1.784 1.78s-.8 1.78-1.79 1.78"/>
    <path fill="#FEFEFE" d="M82.215 187.244H70.753c-.987 0-1.784-.8-1.784-1.785 0-.99.79-1.79 1.78-1.79h11.46c2.13 0 3.84-.7 5.21-2.13 4.02-4.21 3.69-13.08 3.68-13.17-.05-.99.72-1.82 1.7-1.86.94-.02 1.81.71 1.86 1.7.02.42.42 10.47-4.67 15.79-2.05 2.14-4.67 3.23-7.8 3.23m-31.55.18c-5.14 0-9.43-1.44-12.79-4.3-6.51-5.54-7.04-14.33-7.06-14.7-.04-.78.43-1.49 1.15-1.77.73-.27 1.55-.05 2.03.57.05.07 5.36 6.7 12.42 7.34 3.65.33 7.23-1.02 10.62-4.02 14.22-12.54 29.25-6.02 29.88-5.74.9.4 1.3 1.46.89 2.36-.4.89-1.45 1.3-2.35.9-.56-.24-13.61-5.83-26.05 5.16-4.17 3.68-8.66 5.33-13.34 4.9-4.22-.38-7.82-2.4-10.42-4.39.85 2.24 2.24 4.75 4.54 6.7 3.29 2.78 7.8 3.88 13.41 3.25 1.02-.1 1.86.6 1.97 1.57.1.98-.6 1.86-1.58 1.97-1.16.13-2.28.19-3.36.19m84.34 0c-1.08 0-2.2-.06-3.36-.19-.98-.11-1.68-.99-1.58-1.97.11-.98.96-1.67 1.97-1.58 5.62.62 10.15-.48 13.44-3.28 2.3-1.96 3.69-4.47 4.54-6.69-2.61 1.99-6.21 4.02-10.44 4.4-4.69.43-9.16-1.22-13.33-4.9-12.44-10.99-25.5-5.41-26.05-5.16-.89.39-1.95-.01-2.35-.91-.4-.9 0-1.95.9-2.35.64-.29 15.66-6.81 29.87 5.74 3.4 3 7 4.36 10.64 4.02 7.09-.65 12.35-7.27 12.41-7.33.48-.61 1.31-.85 2.03-.57.73.27 1.2.98 1.16 1.76-.02.37-.54 9.16-7.05 14.69-3.36 2.86-7.65 4.3-12.79 4.3"/>
    <path fill="#FEFEFE" d="M93.613 195.245c-.066 0-.132 0-.198-.002-7.457-.144-12.52-8.514-12.733-8.87-.503-.847-.226-1.94.62-2.444.85-.51 1.94-.23 2.446.61.04.07 4.277 7.03 9.747 7.13h.113c3.21 0 6.404-2.42 9.498-7.19.537-.83 1.643-1.07 2.467-.53.828.53 1.064 1.64.527 2.47-3.794 5.85-7.994 8.81-12.487 8.81"/>
    <g transform="translate(0 12)">
      <mask id="cat-desktop-slide-1j" fill="#fff">
        <use xlink:href="#cat-desktop-slide-1i"/>
      </mask>
      <path fill="#FEFEFE" d="M90.915 65.708c.043-.154.094-.303.094-.47v-21.76c13.83.13 24.93 2.743 32.1 5.056 1.89.612 3.53 1.202 4.85 1.718 1.56.614 2.71 1.124 3.39 1.443l1.39 6.93.75 3.762 1.34 6.706c-15.28-2.53-30.42-3.388-43.94-3.388zm-1.533-25.832c-.053-.005-.102-.032-.157-.032-.055 0-.102.027-.157.032-6.382.06-13.425.64-20.987 2.045-.06.02-.12.03-.19.04-3.77.71-7.67 1.64-11.68 2.8 5.1-6.72 14.63-16.92 26.87-19.39 1.47-.29 2.97-.49 4.51-.54 3.05-.1 6.11.34 9.16 1.25 8.1 2.44 16.18 8.48 24.16 18.03-.46-.13-.88-.26-1.36-.39-3.32-.9-7.15-1.77-11.48-2.45-5.22-.82-11.53-1.41-18.66-1.37zM68.66 66.456l.454-6.444.245-3.465.8-11.37c6.09-1.054 11.87-1.557 17.28-1.675v21.735c0 .173.05.33.09.49-6.83.07-13.19.35-18.88.73zM65.765 56.8l-.244 3.47-.45 6.45c-4.88.38-9.17.82-12.73 1.235l2.54-19.075c3.99-1.23 7.89-2.25 11.67-3.02l-.78 10.94zm-17.1 11.61c-2.124.275-3.88.53-5.145.723l.883-5.155.698-4.065 1.4-8.14c1.56-.6 3.09-1.15 4.62-1.677L48.67 68.41zM87.028 3.8c6.06-.358 11.282 4.28 11.64 10.34.18 3.05-.916 5.872-2.813 7.98-2.802-.66-5.614-.972-8.438-.87-1.212.04-2.395.168-3.562.34-1.384.206-2.73.502-4.048.87-1.786-1.827-2.953-4.274-3.116-7.018-.36-6.06 4.28-11.28 10.34-11.64zm51.836 67.145l-1.43-7.118-.833-4.148-1.91-9.55c-.1-.53-.44-.98-.91-1.23-.19-.1-2.48-1.29-6.54-2.77-8.64-11.43-17.52-18.95-26.55-22.5-.38-.15-.76-.28-1.14-.42 1.87-2.61 2.91-5.84 2.71-9.29C101.77 5.9 94.85-.24 86.83.24 78.8.71 72.66 7.63 73.133 15.65c.18 3.032 1.298 5.79 3.038 8.03C62.96 28.95 53.8 41.3 50.33 46.62c-.73.25-1.44.47-2.17.735-1.3.465-2.59.94-3.9 1.46-.58.23-1 .743-1.1 1.355l-1.49 8.66-.747 4.344-1.34 7.813c-.1.574.09 1.16.505 1.57.41.41.995.59 1.573.487.47-.086 47.57-8.465 95.14 0 .11.02.21.03.32.03.48 0 .94-.19 1.28-.537.42-.42.59-1.02.48-1.6z" mask="url(#j)"/>
    </g>
    <path fill="#FEFEFE" d="M93.275 235.493h-.494c-28.15-.26-48.47-22.24-49.33-23.174-.66-.73-.61-1.86.12-2.52.73-.67 1.86-.61 2.52.11.2.22 20.18 21.78 46.76 22.01h.43c15.72 0 30.68-7.41 44.49-22.04.68-.72 1.81-.75 2.52-.07.72.67.75 1.8.07 2.52-14.51 15.36-30.34 23.15-47.07 23.15m-22.93 34.19c-1.51-.23-2.99-.49-4.45-.76v.01c1.46.27 2.94.52 4.45.75m-12.24-2.44c-1.14-.29-2.27-.58-3.37-.88 1.1.3 2.23.59 3.37.88m3.79.88c-1.01-.22-2.01-.45-2.99-.69.98.23 1.98.46 2.99.68m13.3 5.81l.39.04-.39-.32v.27zm-9.3-5.01c-1.16-.22-2.31-.45-3.44-.69 1.13.24 2.28.47 3.44.68v-.01z"/>
    <path fill="#FEFEFE" d="M65.895 266.035v2.895c1.46.27 2.94.526 4.454.756l-4.46-3.65zm-4 2.09c.145.032.286.066.43.097v-.002l-.43-.095m-2.99-.685c-.266-.065-.533-.127-.798-.193.265.066.532.128.798.192m3.422.78c.04.01.083.01.125.02l-.125-.03m8.023 1.46l1.275.18v-.02c-.423-.06-.858-.11-1.276-.18m9.16 1.07c-1.47-.12-2.9-.27-4.32-.43 1.42.16 2.85.31 4.31.43"/>
    <path fill="#FEFEFE" d="M74.5 270.247c-.972-.118-1.923-.253-2.876-.39v.015c.95.134 1.907.26 2.876.375m.693.083c-.03-.005-.064-.007-.094-.01l.09.01m-.69-.083c.2.023.39.048.6.073-.21-.023-.4-.05-.6-.073m-4.15-.56l-4.46-3.65v2.893c-1.17-.216-2.32-.445-3.45-.684 1.13.24 2.27.473 3.44.69 1.45.272 2.94.52 4.45.75"/>
    <path fill="#FEFEFE" d="M74.5 270.247c-.972-.118-1.923-.253-2.876-.39-.42-.058-.857-.108-1.274-.17.423.064.847.125 1.274.185.95.134 1.907.26 2.876.375m.6.073l.093.01c1.42.162 2.855.31 4.317.43-1.462-.12-2.898-.268-4.317-.432-.032-.003-.064-.005-.094-.01"/>
    <path fill="#221F20" d="M113.103 269.19c1.69-.297 3.397-.63 5.12-.996-1.723.37-3.43.698-5.12.996"/>
    <path fill="#FEFEFE" d="M75.1 270.32l.093.01c1.42.162 2.855.31 4.317.43-1.462-.12-2.898-.268-4.317-.432-.032-.003-.064-.005-.094-.01m-.6-.07c-.98-.12-1.93-.254-2.88-.39-.42-.06-.86-.11-1.28-.17.42.063.84.124 1.27.184.95.134 1.9.26 2.87.375m-4.15-.56l-4.46-3.65v2.893c-1.17-.216-2.32-.445-3.45-.684 1.13.24 2.27.473 3.44.69 1.45.272 2.94.52 4.45.75"/>
    <path fill="#FEFEFE" d="M75.1 270.32l.093.01c1.42.162 2.855.31 4.317.43-1.462-.12-2.898-.268-4.317-.432-.032-.003-.064-.005-.094-.01m-4.75-.632l-4.46-3.65v2.894c-1.17-.216-2.32-.445-3.45-.684 1.13.24 2.27.473 3.44.69 1.45.272 2.94.52 4.45.75m4.15.56c-.97-.117-1.93-.252-2.88-.39-.42-.057-.86-.107-1.28-.17.42.065.85.126 1.27.186.95.134 1.9.26 2.87.375"/>
    <path fill="#FEFEFE" d="M74.5 270.247c-.972-.118-1.923-.253-2.876-.39-.42-.058-.857-.108-1.274-.17.423.064.847.125 1.274.185.95.134 1.907.26 2.876.375m.6.073l.093.01c1.42.162 2.855.31 4.317.43-1.462-.12-2.898-.268-4.317-.432-.032-.003-.064-.005-.094-.01m-4.75-.632l-4.46-3.65v2.894c-1.17-.216-2.32-.445-3.45-.684 1.13.24 2.27.473 3.44.69 1.45.272 2.94.52 4.45.75m-26.59-57.08c-.57-.65-13.7-16.07-4.12-29.548l2.91 2.068c-7.97 11.216 3.78 25.004 3.9 25.14l-2.7 2.34zm96.47 0l-2.7-2.337c.12-.14 11.85-13.96 3.9-25.15l2.91-2.07c9.57 13.48-3.56 28.9-4.12 29.55m-63.65 18.85H73v-11.57h3.57v11.57zm45.19-5.79h-3.56v-14.23h3.57v14.23zm-61.47-16.33H56.7v-8.07h3.57v8.07z"/>
    <path fill="#FEFEFE" d="M3.613 245.438c3.25 2.453 8.424 6.063 15.253 9.923v17.15c-7.127-4.08-12.346-7.83-15.25-10.07l-.003-.16v-16.83zm18.82 11.876c1.657.88 3.41 1.763 5.226 2.643v17.21c-1.83-.894-3.57-1.794-5.23-2.686v-17.16zm0-22.69c1.66.902 3.397 1.812 5.226 2.717v18.6c-1.84-.92-3.57-1.83-5.23-2.74v-18.57zm8.794 4.424c1.217.566 2.504 1.12 3.787 1.674l27.312 22.388v5.108l.125.03c1.13.238 2.28.466 3.45.682v-2.894l4.46 3.65c.42.063.86.113 1.28.172.95.136 1.91.27 2.88.39-.96-.117-1.92-.242-2.87-.376-.42-.06-.85-.12-1.27-.185-1.51-.23-3-.48-4.45-.75-1.16-.217-2.31-.45-3.44-.69-.04-.01-.08-.016-.12-.025-.14-.032-.28-.066-.43-.096-1.01-.222-2.01-.45-2.99-.686l-.79-.192c-1.14-.284-2.27-.573-3.37-.876-8.77-2.41-16.65-5.5-23.51-8.715v-18.61zm22.955 8.49c2.593.723 5.314 1.394 8.144 2 1.17.248 2.36.487 3.57.712 1.862.346 3.778.65 5.728.926 1.178.168 2.36.33 3.57.468 4.404.507 9.006.822 13.793.88l-13.105 17.2-.69-.567-3.568-2.925-5.73-4.696-3.568-2.926-16.883-13.84c2.814.978 5.7 1.92 8.74 2.768zm36.504 23.646c-3.842.014-7.576-.13-11.175-.423-1.46-.12-2.89-.26-4.31-.43-.03 0-.06 0-.09-.01l.1.01c1.42.17 2.86.32 4.32.44l11.43-14.99-.25 15.42zm3.84-16.84l13.21 15.684c-4.624.615-9.12.96-13.48 1.095l.27-16.778zm25.47-5.114c1.186-.266 2.37-.537 3.57-.84 1.48-.372 2.96-.757 4.46-1.19 1.18-.338 2.375-.725 3.57-1.104 2.41-.76 4.838-1.573 7.295-2.498l-7.29 7.073-3.57 3.46-4.46 4.33-3.57 3.46-7.66 7.43-.33.32-.2-.23-14.37-17.07c7.19-.37 14.74-1.37 22.57-3.12zm37.213-13.97v18.377c-8.76 4.69-17.33 8.3-25.62 10.956v-9.058l16.09-15.603c3.14-1.414 6.32-2.978 9.52-4.672zm-29.19 30.426c-1.5.436-2.99.853-4.46 1.233v-3.6l4.46-4.33v6.69zm-8.03 2.1c-.45.102-.91.215-1.36.313l1.36-1.33v1zm40.78-12.006c1.08-.598 2.17-1.235 3.25-1.866v15.946c-1.09.658-2.17 1.326-3.26 1.95v-16.03zm0-22.46c1.08-.608 2.17-1.222 3.25-1.862v18.32c-1.09.647-2.17 1.302-3.26 1.914V233.32zm6.82 18.472c3.48-2.13 6.97-4.406 10.5-6.902v15.552c-3.53 2.604-7.03 4.977-10.51 7.202v-15.852zm0-22.504c3.47-2.162 6.98-4.505 10.5-7.04v18.256c-3.53 2.566-7.03 4.905-10.51 7.093v-18.31zM.04 151.78v110.49c0 .658.03 1.31.046 1.966.07 3.73.37 7.394.84 10.998l-.066 2.108h3.97c-.537-3.374-.927-6.806-1.1-10.305 3.456 2.534 8.577 5.994 15.13 9.63v.675h12.362V261.63c6.6 2.99 14.09 5.846 22.4 8.14 2.763.764 5.67 1.468 8.7 2.1v5.47h3.568v-4.77c1.864.337 3.78.637 5.73.908v3.863h3.568v-3.68l.39.32c.46.05.93.08 1.38.13 4.29.43 8.75.68 13.39.68h.28l-.04 2.56h3.57l.043-2.62c5.24-.15 10.67-.6 16.27-1.44 1.14-.17 2.29-.38 3.43-.58 2.02-.35 4.05-.77 6.11-1.23v5.88h3.57v-6.72c1.48-.37 2.97-.78 4.46-1.2v7.93h3.57v-8.99c8.3-2.59 16.86-6.11 25.62-10.68v16.12c-2.31 1.26-4.61 2.44-6.89 3.55h10.46v-1.45c1.09-.6 2.17-1.25 3.26-1.89v3.34h3.57v-5.5c3.46-2.15 6.95-4.45 10.46-6.96-.11 4.19-.53 8.36-1.2 12.47h3.64l.09-.5c.72-4.8 1.09-9.67 1.09-14.56V151.8c0-11.994-2.12-23.663-6.3-34.694 7.04-42.79 6.05-64.613-3.05-66.703-7.64-1.752-19.43 5.495-35.06 21.536-.19-.08-.44-.16-.66-.24l.83 4.15c.55.07 1.11-.1 1.51-.52 14.72-15.27 26.29-22.89 32.59-21.45 4.98 1.15 7.66 18.33.25 63.12-.05.32-.02.64.1.94 4.14 10.75 6.24 22.15 6.24 33.87v66.04c-3.52 2.61-7.03 5.02-10.5 7.25-1.19.77-2.38 1.49-3.57 2.21-1.08.66-2.17 1.34-3.25 1.96-1.19.69-2.38 1.32-3.57 1.97-8.76 4.77-17.32 8.44-25.61 11.14-1.19.38-2.38.77-3.57 1.12-1.49.44-2.98.86-4.46 1.25-1.2.31-2.38.59-3.57.86-8.89 2.05-17.42 3.09-25.46 3.34-.95.03-1.89.04-2.83.05-5.78.05-11.28-.3-16.51-.92-1.2-.14-2.4-.29-3.57-.46-1.96-.29-3.86-.62-5.73-.98-1.21-.23-2.4-.47-3.57-.73-2.43-.54-4.79-1.11-7.04-1.74-6.78-1.88-13.04-4.18-18.69-6.63-.37-.16-.72-.32-1.08-.48-1.47-.65-2.9-1.31-4.28-1.97-1.13-.55-2.23-1.09-3.3-1.64-1.93-.99-3.76-1.97-5.49-2.94-1.24-.7-2.43-1.39-3.56-2.07-8.29-4.96-13.61-9.24-15.25-10.6v4.59c2.98 2.33 8.16 6.1 15.25 10.21v18.55c-7.53-4.4-12.79-8.33-15.25-10.29v-18.48c-1.75-1.37-2.75-2.25-2.92-2.4l2.37-2.67c.02.02.2.18.54.46V151.8c0-10.525 1.71-20.85 5.09-30.69.1-.284.12-.587.07-.88C.7 73.1 3.33 55.05 8.48 53.866 14.76 52.43 26.26 60 40.918 75.186l.742-4.34C26.58 55.563 15.15 48.666 7.68 50.38c-3.44.79-13.895 3.185-2.498 69.983C1.774 130.446.045 141.013.045 151.78z"/>
  </g>
</svg>
