<svg xmlns="http://www.w3.org/2000/svg" width="51" height="52">
  <path fill="#FFF" fill-rule="evenodd" d="M.087 23.883c.15-2.133.71-4.188 1.756-6.076C5.953 10.4 12.127 6.283 18.783 6.513c5.89.204 11.148 3.756 13.727 9.272 3.286 7.03.81 13.84-2.878 17.19-2.958 2.686-6.695 3.232-9.755 1.424-1.19-.71-1.585-2.24-.882-3.43s2.236-1.59 3.424-.88c1.55.91 3.08-.12 3.85-.82 2.45-2.23 3.82-6.85 1.71-11.37-1.76-3.75-5.43-6.26-9.37-6.4-4.79-.17-9.19 2.93-12.4 8.72-3.39 6.104.87 16.594 9.12 22.45 3.85 2.73 13.84 7.94 23.34-2.727 4.95-5.565 7.22-11.35 6.73-17.208-.85-10.22-9.687-17.44-9.77-17.51-1.08-.868-1.25-2.44-.38-3.517.87-1.064 2.45-1.234 3.52-.37.43.35 10.6 8.662 11.62 20.992.6 7.272-2.088 14.32-7.99 20.945-9.95 11.183-22 9.133-29.96 3.483C5.1 41.55-.49 32.142.086 23.882"/>
</svg>
