<svg width="34px" height="49px" viewBox="0 0 34 49" version="1.1" xmlns="http://www.w3.org/2000/svg" xmlns:xlink="http://www.w3.org/1999/xlink" xmlns:sketch="http://www.bohemiancoding.com/sketch/ns">
	<g stroke="none" stroke-width="1" fill="none" fill-rule="evenodd" sketch:type="MSPage">
		<g sketch:type="MSArtboardGroup" transform="translate(-846.000000, -1621.000000)" stroke-linecap="round" stroke="#FF3A47" stroke-width="2">
			<g sketch:type="MSLayerGroup" transform="translate(70.000000, 1499.000000)">
				<g transform="translate(1.000000, 112.250000)" sketch:type="MSShapeGroup">
					<g transform="translate(776.000000, 11.000000)">
						<path d="M16,24.0952381 L16,37.2380952"></path>
						<path d="M22.5454545,30.6666667 L9.45454545,30.6666667"></path>
						<g>
							<path d="M24.7272727,13.1428571 L28.9738182,13.1428571 C30.6450909,13.1428571 32,14.5031429 32,16.1810476 L32,42.9618095 C32,44.6397143 30.6450909,46 28.9738182,46 L3.02618182,46 C1.35490909,46 0,44.6397143 0,42.9618095 L0,16.1810476 C0,14.5031429 1.35490909,13.1428571 3.02618182,13.1428571 L7.27272727,13.1428571 L24.7272727,13.1428571 L24.7272727,13.1428571 Z"></path>
							<path d="M8.72727273,16.7936508 L8.72727273,7.3015873 C8.72727273,3.26892063 11.9832727,0 16,0 C20.0167273,0 23.2727273,3.26892063 23.2727273,7.3015873 L23.2727273,16.7936508"></path>
						</g>
					</g>
				</g>
			</g>
		</g>
	</g>
</svg>