<?xml version="1.0" encoding="utf-8"?>
<!-- Generator: Adobe Illustrator 16.0.0, SVG Export Plug-In . SVG Version: 6.00 Build 0)  -->
<!DOCTYPE svg PUBLIC "-//W3C//DTD SVG 1.1//EN" "http://www.w3.org/Graphics/SVG/1.1/DTD/svg11.dtd">
<svg version="1.1" id="Layer_1" xmlns="http://www.w3.org/2000/svg" xmlns:xlink="http://www.w3.org/1999/xlink" x="0px" y="0px"
	 width="37.475px" height="38px" viewBox="0 0 37.475 38" enable-background="new 0 0 37.475 38" xml:space="preserve">
<g id="Layer_1_1_">
	<path fill="#00BF5F" d="M12.557,17.47l3.319,5.982L7.559,37.32l-3.32-5.913L12.557,17.47z M8.526,10.082l3.319,5.982L3.424,29.848
		l-3.32-5.912L8.526,10.082z M17.209,24.198h6.911L15.725,38H9.032L17.209,24.198z M25.882,24.198h6.911L24.397,38h-6.693
		L25.882,24.198z M22.122,15.436c-1.86-2.516-9.3-12.19-5.221-14.965c1.375-0.935,3.422-0.271,5.263,0.748
		c2.275,1.259,3.848,3.896,3.614,7.543c2.962-2.14,6.054-2.058,8.46-0.992c1.923,0.852,3.237,2.402,3.237,4.067
		C37.476,16.963,22.122,15.436,22.122,15.436z M27.6,12.499c3.321-0.127,6.602-0.443,6.602-0.443
		c-0.438-0.587-0.902-0.987-1.371-1.248C30.765,9.666,27.6,12.499,27.6,12.499z M20.292,3.875c-0.471-0.261-1.057-0.438-1.785-0.499
		c0,0,1.423,3.333,3.181,6.326C21.688,9.702,22.745,5.232,20.292,3.875z M24.128,22.76l-6.896,0.002l-3.331-5.977l6.95,0.022
		L24.128,22.76z M32.801,22.76l-6.895,0.002l-3.331-5.977l6.95,0.022L32.801,22.76z M20.268,15.618l-6.895,0.002l-3.331-5.977
		l6.95,0.022L20.268,15.618z"/>
</g>
<g id="Layer_2">
</g>
</svg>
