<svg version="1.1" xmlns="http://www.w3.org/2000/svg" xmlns:xlink="http://www.w3.org/1999/xlink" x="0px" y="0px" width="141.832px" height="38px" viewBox="0 0 141.832 38" enable-background="new 0 0 141.832 38" xml:space="preserve">
<g>
	<path fill="#333333" d="M42.333,23.132v-2.434h5.038v2.434h-0.64l0.417,1.373c0.247,0.848,0.403,1.745,0.47,2.696h0.038
		c0.124-1.634,0.379-3.102,0.77-4.407l0.594-2.095h3.466l0.717,2.435c0.358,1.146,0.625,2.502,0.8,4.069h0.04
		c0.107-1.177,0.273-2.161,0.501-2.959l0.322-1.11h-0.771v-2.435h4.576v2.435h-0.77l-2.196,6.935h-3.953l-1.286-4.238l-1.355,4.238
		h-3.86l-2.111-6.935h-0.808V23.132z M59.332,30.067v-2.451h0.785v-4.484h-0.785v-2.434h4.345v6.917h0.9v2.451L59.332,30.067
		L59.332,30.067z M60.449,19.273c-0.397-0.395-0.593-0.832-0.593-1.311c0-0.478,0.181-0.913,0.546-1.31
		c0.371-0.399,0.86-0.601,1.472-0.601c0.617,0,1.114,0.202,1.495,0.601c0.38,0.396,0.569,0.832,0.569,1.31
		c0,0.535-0.184,0.985-0.554,1.349c-0.37,0.365-0.871,0.546-1.502,0.546C61.321,19.859,60.843,19.664,60.449,19.273L60.449,19.273z
		 M65.433,30.067v-3.375h2.504c0,0.299,0.132,0.553,0.4,0.762c0.271,0.206,0.543,0.344,0.817,0.408
		c0.277,0.063,0.534,0.093,0.771,0.093c0.548,0,0.823-0.211,0.823-0.639c0-0.112-0.049-0.211-0.145-0.293
		c-0.099-0.082-0.246-0.154-0.439-0.217c-0.197-0.065-0.399-0.127-0.609-0.184l-0.762-0.199c-0.31-0.078-0.576-0.157-0.801-0.24
		c-1.661-0.584-2.488-1.583-2.488-2.997c0-0.872,0.35-1.543,1.055-2.01c0.708-0.472,1.456-0.711,2.243-0.711
		c0.62,0,1.188,0.146,1.709,0.434c0.525,0.282,0.885,0.626,1.087,1.029l0.145-1.231h2.304v3.373h-2.427
		c0-0.384-0.197-0.719-0.593-0.999c-0.397-0.283-0.838-0.425-1.325-0.425c-0.488,0-0.732,0.229-0.732,0.678
		c0,0.099,0.036,0.188,0.107,0.271c0.078,0.082,0.203,0.167,0.378,0.247c0.179,0.077,0.335,0.141,0.47,0.192
		c0.138,0.053,0.362,0.126,0.67,0.223l0.687,0.231c0.487,0.166,0.854,0.3,1.103,0.408c0.246,0.108,0.541,0.281,0.894,0.516
		c0.347,0.232,0.602,0.521,0.763,0.863c0.162,0.346,0.245,0.745,0.245,1.202c0,0.849-0.345,1.531-1.031,2.05
		c-0.686,0.513-1.501,0.769-2.45,0.769c-0.638,0-1.216-0.131-1.734-0.392c-0.514-0.264-0.89-0.588-1.132-0.98l-0.162,1.142h-2.342
		V30.067z M75.234,30.067v-2.451h0.784v-9.167h-0.784v-2.435h4.535v5.847c0.15-0.249,0.524-0.563,1.127-0.939
		c0.604-0.373,1.208-0.562,1.81-0.562c0.688,0,1.264,0.115,1.726,0.348c0.461,0.23,0.796,0.562,1.01,0.993
		c0.208,0.431,0.354,0.86,0.43,1.287c0.077,0.421,0.115,0.921,0.115,1.499v3.129h0.881v2.451h-4.816v-5.093
		c0-0.24-0.006-0.427-0.016-0.562c-0.01-0.14-0.05-0.312-0.115-0.523c-0.062-0.216-0.174-0.381-0.339-0.493
		c-0.16-0.111-0.37-0.17-0.632-0.17c-0.786,0-1.178,0.585-1.178,1.749v2.642h1.339v2.451L75.234,30.067L75.234,30.067z
		 M87.769,30.067v-2.451h0.815v-4.484h-0.8v-2.434h3.521l0.568,1.203c0.148-0.278,0.283-0.494,0.402-0.648
		c0.116-0.154,0.281-0.324,0.491-0.51c0.218-0.184,0.487-0.314,0.817-0.392c0.327-0.081,0.726-0.124,1.187-0.124v3.367
		c-0.894,0-1.559,0.152-1.996,0.453c-0.43,0.305-0.646,0.847-0.646,1.634v1.934h0.94v2.451L87.769,30.067L87.769,30.067z
		 M96.925,21.792c1.018-0.877,2.214-1.318,3.598-1.325c1.52,0.028,2.761,0.479,3.72,1.357c0.961,0.874,1.454,2.071,1.481,3.597
		c0,0.015,0,0.035,0,0.053c0,1.48-0.481,2.655-1.441,3.522c-0.977,0.875-2.203,1.312-3.674,1.316c-1.448,0-2.688-0.434-3.714-1.31
		c-1.014-0.856-1.517-2.059-1.511-3.605C95.378,23.888,95.893,22.687,96.925,21.792L96.925,21.792z M99.222,25.367
		c0,0.762,0.131,1.374,0.391,1.841c0.263,0.468,0.594,0.701,0.994,0.701c0.384,0,0.694-0.233,0.925-0.701
		c0.231-0.467,0.347-1.063,0.347-1.787c0-0.729-0.125-1.325-0.369-1.789c-0.243-0.466-0.572-0.707-0.986-0.724
		c-0.366,0-0.673,0.237-0.925,0.711C99.345,24.092,99.222,24.673,99.222,25.367L99.222,25.367z M106.294,23.171v-2.472h4.529v4.521
		c0,0.822,0.073,1.421,0.224,1.796c0.148,0.375,0.412,0.562,0.786,0.562c0.339,0,0.62-0.133,0.848-0.401
		c0.227-0.271,0.339-0.61,0.339-1.024v-2.981h-1.239v-2.472h4.852v6.879h0.925v2.489h-3.551l-0.499-1.181l-0.186,0.21
		c-0.123,0.153-0.208,0.25-0.254,0.284l-0.277,0.261c-0.141,0.136-0.266,0.23-0.378,0.278c-0.109,0.047-0.246,0.108-0.41,0.185
		c-0.158,0.081-0.337,0.139-0.531,0.169c-0.195,0.036-0.403,0.054-0.632,0.054c-1.386,0-2.36-0.36-2.919-1.083
		c-0.561-0.726-0.84-1.886-0.84-3.482v-2.589h-0.786V23.171z M118.425,30.067v-2.451h0.786v-4.484h-0.786v-2.434h3.982l0.438,1.162
		c0.729-1,1.622-1.501,2.672-1.501c0.561,0,1.052,0.083,1.476,0.246c0.418,0.16,0.747,0.368,0.984,0.625
		c0.239,0.259,0.434,0.576,0.578,0.954c0.141,0.382,0.237,0.751,0.285,1.109c0.05,0.356,0.077,0.754,0.077,1.194v3.128h0.878v2.451
		h-4.722V24.95v-0.438c0-0.064-0.016-0.208-0.048-0.422c-0.031-0.221-0.083-0.375-0.152-0.463c-0.067-0.094-0.176-0.186-0.316-0.278
		c-0.146-0.095-0.321-0.146-0.523-0.146c-0.792,0-1.188,0.582-1.188,1.747v2.667h1.349v2.451L118.425,30.067L118.425,30.067z
		 M130.414,25.289c0-1.405,0.426-2.552,1.271-3.442c0.852-0.889,1.88-1.333,3.082-1.333c0.82,0,1.606,0.237,2.358,0.709V18.45
		h-0.863v-2.435h4.662v11.617h0.907v2.436h-4.391l-0.315-0.695c-0.623,0.57-1.41,0.855-2.358,0.855
		c-1.289,0-2.339-0.483-3.143-1.455C130.818,27.801,130.414,26.642,130.414,25.289L130.414,25.289z M134.444,25.289
		c0,0.598,0.123,1.132,0.379,1.602c0.249,0.47,0.574,0.703,0.969,0.703c0.386,0,0.713-0.22,0.987-0.662
		c0.24-0.39,0.355-0.888,0.347-1.486c0-0.079,0-0.164,0-0.246c0-0.619-0.137-1.149-0.401-1.587
		c-0.268-0.441-0.583-0.662-0.949-0.662c-0.405,0-0.73,0.214-0.97,0.64C134.562,24.01,134.444,24.578,134.444,25.289L134.444,25.289
		z"/>
	<path fill="#00BF5F" d="M12.557,17.47l3.319,5.982L7.559,37.32l-3.32-5.913L12.557,17.47z M8.526,10.082l3.319,5.982L3.424,29.847
		l-3.32-5.912L8.526,10.082z M17.209,24.198h6.911L15.725,38H9.032L17.209,24.198z M25.882,24.198h6.911L24.397,38h-6.693
		L25.882,24.198z M17.828,14.889 M22.122,15.436c-1.86-2.516-9.3-12.19-5.221-14.965c1.375-0.935,3.422-0.271,5.263,0.748
		c2.275,1.259,3.848,3.895,3.614,7.543c2.962-2.14,6.054-2.058,8.46-0.992c1.923,0.852,3.237,2.402,3.237,4.067
		C37.476,16.963,22.122,15.436,22.122,15.436z M27.6,12.499c3.321-0.127,6.602-0.443,6.602-0.443
		c-0.438-0.587-0.902-0.987-1.371-1.248C30.765,9.666,27.6,12.499,27.6,12.499z M20.292,3.875c-0.471-0.261-1.057-0.438-1.785-0.499
		c0,0,1.423,3.333,3.181,6.326C21.688,9.702,22.745,5.232,20.292,3.875z M24.128,22.76l-6.896,0.002l-3.331-5.977l6.95,0.022
		L24.128,22.76z M32.801,22.76l-6.895,0.002l-3.331-5.977l6.95,0.022L32.801,22.76z M20.268,15.618l-6.895,0.002l-3.331-5.977
		l6.95,0.022L20.268,15.618z"/>
</g>
</svg>
